From,To,Text,Delay,Width,Icon
1,2,,,,
2,1,,,,
2,3,,,,
2,4,,,,
2,22,,,,
3,2,,,,
4,2,,,,
4,5,,,,
5,4,,,,
5,6,,,,
5,7,,,,
7,5,,,,
7,1,,,,
7,8,,,,
8,7,,,,
8,9,,,,
8,10,,,,
8,11,,,,
9,8,,,,
10,8,,,,
11,8,,,,
11,12,,,,
11,13,,,,
11,14,,,,
12,11,,,,
13,11,,,,
14,11,,,,
14,15,,,,
15,14,,,,
15,16,,,,
15,17,,,,
16,15,,,,
17,15,,,,
17,18,,,,
17,20,,,,
17,19,,,,
18,17,,,,
19,17,,,,
20,17,,,,
20,21,,,,
20,107,,,,
21,20,,,,
22,2,,,,
22,23,,,,
22,26,,,,
22,53,,,,
23,22,,,,
23,24,,,,
23,25,,,,
24,23,,,,
25,23,,,,
26,22,,,,
26,50,,,,
26,27,,,,
26,29,,,,
27,26,,,,
27,28,,,,
28,27,,,,
29,26,,,,
29,30,,,,
29,31,,,,
29,32,,,,
29,33,,,,
30,29,,,,
31,29,,,,
32,29,,,,
33,29,,,,
33,34,,,,
33,39,,,,
34,33,,,,
34,36,,,,
34,35,,,,
34,37,,,,
35,34,,,,
36,34,,,,
37,34,,,,
37,38,,,,
38,37,,,,
39,33,,,,
39,40,,,,
39,41,,,,
39,44,,,,
40,39,,,,
41,39,,,,
41,42,,,,
41,43,,,,
41,318,,,,
318,319,,,,
319,318,,,,
44,39,,,,
44,45,,,,
44,48,,,,
44,47,,,,
44,49,,,,
44,46,,,,
46,44,,,,
47,44,,,,
48,44,,,,
49,44,,,,
49,50,,,,
49,51,,,,
50,49,,,,
50,26,,,,
51,49,,,,
51,52,,,,
51,317,,,,
52,317,,,,
52,51,,,,
52,55,,,,
52,316,,,,
53,53,,,,
53,316,,,,
52,104,,,,
52,58,,,,
53,52,,,,
53,54,,,,
53,22,,,,
53,107,,,,
53,317,,,,
53,104,,,,
316,52,,,,
316,53,,,,
317,51,,,,
317,52,,,,
317,53,,,,
317,104,,,,
54,53,,,,
55,56,,,,
55,58,,,,
55,52,,,,
55,57,,,,
55,57,,,,
55,59,,,,
56,55,,,,
57,55,,,,
58,55,,,,
58,52,,,,
58,104,,,,
59,55,,,,
59,60,,,,
59,61,,,,
59,125,,,,
60,59,,,,
61,59,,,,
61,62,,,,
61,65,,,,
62,61,,,,
62,63,,,,
62,64,,,,
63,62,,,,
64,62,,,,
65,61,,,,
65,66,,,,
65,67,,,,
65,315,,,,
315,65,,,,
66,65,,,,
67,65,,,,
67,68,,,,
67,69,,,,
68,67,,,,
69,67,,,,
69,70,,,,
69,71,,,,
69,73,,,,
70,69,,,,
71,69,,,,
72,73,,,,
73,72,,,,
73,74,,,,
74,75,,,,
74,79,,,,
74,191,,,,
74,73,,,,
75,74,,,,
75,76,,,,
75,77,,,,
75,78,,,,
76,75,,,,
77,75,,,,
78,75,,,,
89,74,,,,
79,80,,,,
79,87,,,,
79,74,,,,
80,79,,,,
80,81,,,,
80,82,,,,
80,83,,,,
81,80,,,,
82,80,,,,
83,80,,,,
83,84,,,,
83,85,,,,
84,83,,,,
85,83,,,,
85,86,,,,
86,85,,,,
87,79,,,,
87,88,,,,
87,91,,,,
87,99,,,,
88,87,,,,
88,89,,,,
89,88,,,,
89,90,,,,
90,89,,,,
90,91,,,,
90,100,,,,
91,90,,,,
91,87,,,,
91,92,,,,
92,91,,,,
92,93,,,,
92,96,,,,
92,97,,,,
93,92,,,,
93,95,,,,
93,98,,,,
93,94,,,,
94,93,,,,
95,93,,,,
96,92,,,,
97,92,,,,
98,93,,,,
99,87,,,,
99,301,,,,
100,90,,,,
100,101,,,,
100,102,,,,
100,103,,,,
101,100,,,,
102,100,,,,
103,100,,,,
104,53,,,,
104,317,,,,
104,52,,,,
104,58,,,,
104,105,,,,
104,106,,,,
105,104,,,,
106,104,,,,
106,107,,,,
106,108,,,,
107,106,,,,
107,20,,,,
107,113,,,,
107,53,,,,
108,106,,,,
108,109,,,,
108,114,,,,
109,108,,,,
109,114,,,,
109,146,,,,
109,110,,,,
109,111,,,,
110,111,,,,
110,109,,,,
110,112,,,,
111,109,,,,
111,110,,,,
112,110,,,,
112,142,,,,
112,113,,,,
113,112,,,,
113,128,,,,
113,107,,,,
114,108,,,,
114,109,,,,
114,119,,,,
114,115,,,,
114,116,,,,
114,117,,,,
114,118,,,,
114,120,,,,
115,114,,,,
116,114,,,,
117,114,,,,
118,114,,,,
119,114,,,,
119,120,,,,
119,169,,,,
120,114,,,,
120,121,,,,
120,119,,,,
121,120,,,,
121,122,,,,
121,123,,,,
122,121,,,,
123,121,,,,
123,124,,,,
123,125,,,,
124,123,,,,
125,123,,,,
125,126,,,,
125,127,,,,
125,59,,,,
126,125,,,,
127,125,,,,
128,113,,,,
129,130,,,,
129,132,,,,
130,129,,,,
131,132,,,,
132,129,,,,
132,131,,,,
132,133,,,,
132,136,,,,
133,132,,,,
133,143,,,,
133,135,,,,
133,134,,,,
134,133,,,,
135,133,,,,
136,132,,,,
136,137,,,,
136,138,,,,
137,136,,,,
138,136,,,,
138,139,,,,
138,140,,,,
139,138,,,,
140,138,,,,
140,141,,,,
140,142,,,,
141,140,,,,
142,112,,,,
142,143,,,,
142,140,,,,
143,144,,,,
143,146,,,,
144,143,,,,
144,145,,,,
145,144,,,,
146,143,,,,
146,167,,,,
146,168,,,,
146,147,,,,
146,109,,,,
147,146,,,,
147,148,,,,
148,149,,,,
148,147,,,,
149,148,,,,
148,150,,,,
150,148,,,,
150,151,,,,
150,320,,,,
151,150,,,,
151,152,,,,
152,151,,,,
152,158,,,,
152,153,,,,
153,152,,,,
153,154,,,,
153,155,,,,
154,153,,,,
155,153,,,,
155,156,,,,
156,155,,,,
156,157,,,,
157,156,,,,
158,152,,,,
158,320,,,,
158,159,,,,
320,158,,,,
320,150,,,,
159,158,,,,
159,160,,,,
160,159,,,,
160,161,,,,
160,162,,,,
161,160,,,,
162,160,,,,
162,166,,,,
162,163,,,,
162,164,,,,
162,165,,,,
162,166,,,,
163,162,,,,
164,162,,,,
165,162,,,,
166,162,,,,
167,146,,,,
167,169,,,,
168,146,,,,
169,167,,,,
169,119,,,,
169,170,,,,
170,171,,,,
170,169,,,,
170,172,,,,
171,170,,,,
172,170,,,,
172,173,,,,
172,174,,,,
173,172,,,,
174,172,,,,
174,175,,,,
174,176,,,,
174,177,,,,
175,174,,,,
176,174,,,,
177,174,,,,
177,178,,,,
177,179,,,,
177,180,,,,
178,177,,,,
179,177,,,,
180,177,,,,
180,181,,,,
180,182,,,,
180,183,,,,
181,180,,,,
182,180,,,,
183,180,,,,
183,184,,,,
183,185,,,,
183,189,,,,
184,183,,,,
185,183,,,,
185,186,,,,
185,187,,,,
186,185,,,,
187,185,,,,
187,188,,,,
188,187,,,,
189,183,,,,
189,191,,,,
189,190,,,,
190,189,,,,
191,189,,,,
191,74,,,,
192,194,,,,
193,194,,,,
194,192,,,,
194,193,,,,
194,195,,,,
195,194,,,,
195,196,,,,
195,197,,,,
196,195,,,,
197,195,,,,
198,233,,,,
198,203,,,,
198,204,,,,
198,199,,,,
199,198,,,,
199,200,,,,
200,199,,,,
200,201,,,,
200,202,,,,
201,200,,,,
202,200,,,,
203,198,,,,
204,207,,,,
204,198,,,,
204,205,,,,
205,204,,,,
206,207,,,,
207,206,,,,
207,204,,,,
207,208,,,,
207,212,,,,
207,228,,,,
208,207,,,,
208,209,,,,
209,208,,,,
209,210,,,,
209,211,,,,
210,209,,,,
211,209,,,,
212,207,,,,
212,214,,,,
212,213,,,,
213,212,,,,
214,212,,,,
214,215,,,,
214,216,,,,
214,221,,,,
215,214,,,,
216,217,,,,
216,218,,,,
216,214,,,,
217,216,,,,
218,216,,,,
218,219,,,,
218,220,,,,
219,218,,,,
220,218,,,,
221,214,,,,
221,222,,,,
221,223,,,,
222,221,,,,
223,221,,,,
223,224,,,,
224,223,,,,
224,225,,,,
224,227,,,,
225,226,,,,
225,224,,,,
225,256,,,,
226,225,,,,
227,224,,,,
227,255,,,,
228,229,,,,
228,207,,,,
229,228,,,,
229,230,,,,
229,231,,,,
230,229,,,,
230,246,,,,
231,229,,,,
231,232,,,,
231,247,,,,
232,231,,,,
233,234,,,,
233,198,,,,
234,233,,,,
234,235,,,,
234,236,,,,
234,237,,,,
235,234,,,,
235,241,,,,
236,234,,,,
236,237,,,,
237,234,,,,
237,236,,,,
237,241,,,,
237,238,,,,
237,239,,,,
237,240,,,,
238,237,,,,
239,237,,,,
240,237,,,,
241,235,,,,
241,237,,,,
241,242,,,,
242,241,,,,
242,243,,,,
242,244,,,,
243,242,,,,
244,242,,,,
244,245,,,,
244,246,,,,
245,244,,,,
246,244,,,,
246,247,,,,
246,230,,,,
247,246,,,,
247,231,,,,
247,248,,,,
247,255,,,,
248,247,,,,
248,249,,,,
248,250,,,,
248,251,,,,
248,252,,,,
249,248,,,,
250,248,,,,
251,248,,,,
252,248,,,,
252,253,,,,
253,252,,,,
253,254,,,,
254,253,,,,
255,247,,,,
255,227,,,,
255,256,,,,
256,255,,,,
256,225,,,,
257,258,,,,
258,257,,,,
258,259,,,,
259,258,,,,
259,260,,,,
260,259,,,,
260,261,,,,
261,260,,,,
261,262,,,,
262,261,,,,
262,263,,,,
262,270,,,,
263,262,,,,
263,264,,,,
263,265,,,,
263,266,,,,
264,263,,,,
265,263,,,,
266,263,,,,
266,267,,,,
267,266,,,,
267,268,,,,
268,267,,,,
269,270,,,,
270,262,,,,
270,269,,,,
270,321,,,,
270,271,,,,
270,272,,,,
270,273,,,,
270,274,,,,
270,275,,,,
270,276,,,,
321,270,,,,
321,276,,,,
271,270,,,,
271,276,,,,
272,270,,,,
272,276,,,,
273,270,,,,
273,276,,,,
274,270,,,,
274,276,,,,
275,270,,,,
275,276,,,,
276,270,,,,
276,321,,,,
276,271,,,,
276,272,,,,
276,273,,,,
276,274,,,,
276,275,,,,
276,277,,,,
276,281,,,,
277,276,,,,
277,278,,,,
277,279,,,,
277,280,,,,
277,326,,,,
326,277,,,,
278,277,,,,
279,277,,,,
280,277,,,,
281,277,,,,
281,282,,,,
281,283,,,,
281,276,,,,
282,281,,,,
283,281,,,,
283,284,,,,
283,285,,,,
283,325,,,,
325,283,,,,
284,283,,,,
285,283,,,,
286,288,,,,
287,289,,,,
288,286,,,,
288,289,,,,
289,288,,,,
289,287,,,,
289,290,,,,
290,289,,,,
290,293,,,,
290,291,,,,
290,292,,,,
291,290,,,,
291,293,,,,
292,290,,,,
292,293,,,,
293,292,,,,
293,291,,,,
293,290,,,,
293,294,,,,
293,299,,,,
294,293,,,,
294,295,,,,
295,294,,,,
295,296,,,,
295,297,,,,
295,298,,,,
296,295,,,,
297,295,,,,
298,295,,,,
299,293,,,,
299,300,,,,
300,299,,,,
300,301,,,,
300,322,,,,
322,300,,,,
322,302,,,,
322,305,,,,
301,300,,,,
302,322,,,,
302,303,,,,
302,304,,,,
303,302,,,,
304,302,,,,
305,322,,,,
305,306,,,,
306,305,,,,
306,307,,,,
307,306,,,,
307,308,,,,
307,309,,,,
308,307,,,,
309,307,,,,
309,310,,,,
309,311,,,,
309,312,,,,
309,313,,,,
310,309,,,,
311,309,,,,
311,312,,,,
312,309,,,,
312,311,,,,
312,314,,,,
313,309,,,,
314,312,,,,
193,10,,,,
10,193,,,,
192,9,,,,
9,192,,,,
202,25,,,,
25,202,,,,
201,24,,,,
24,201,,,,
211,63,,,,
63,211,,,,
210,64,,,,
64,210,,,,
220,77,,,,
77,220,,,,
219,78,,,,
78,219,,,,
235,141,,,,
141,235,,,,
236,139,,,,
139,236,,,,
243,168,,,,
168,243,,,,
230,171,,,,
171,230,,,,
232,173,,,,
173,232,,,,
227,181,,,,
181,227,,,,
226,182,,,,
182,226,,,,
257,323,,,,
323,26,,,,
26,323,,,,
323,257,,,,
264,48,,,,
48,264,,,,
45,269,,,,
326,36,,,,
36,326,,,,
280,38,,,,
38,280,,,,
282,40,,,,
40,282,,,,
43,325,,,,
325,43,,,,
268,324,,,,
324,268,,,,
51,324,,,,
324,51,,,,
286,71,,,,
71,286,,,,
287,72,,,,
72,287,,,,
297,102,,,,
102,297,,,,
298,103,,,,
103,298,,,,
303,84,,,,
84,303,,,,
304,82,,,,
82,304,,,,
297,102,,,,
102,297,,,,
298,103,,,,
103,298,,,,
313,98,,,,
98,313,,,,
311,97,,,,
97,311,,,,